{
  "country_code": "MD",
  "parents": [
    "MD",
    "MD-BS"
  ],
  "subdivisions": {
    "Basarabeasca": [],
    "Abaclia": [],
    "Başcalia": [],
    "Bogdanovca": [],
    "Carabetovca": [],
    "Carabiber": [],
    "Iordanovca": [],
    "Iserlia": [],
    "Ivanovca": [],
    "Sadaclia": []
  }
}