{
  "country_code": "MD",
  "parents": [
    "MD",
    "MD-CL"
  ],
  "subdivisions": {
    "Călăraşi": [],
    "Bahmut": [],
    "Bahu": [],
    "Bravicea": [],
    "Buda": [],
    "Bularda": [],
    "Căbăieşti": [],
    "Dereneu": [],
    "Duma": [],
    "Frumoasa": [],
    "Hirova": [],
    "Hîrbovăţ": [],
    "Hîrjauca": [],
    "Hogineşti": [],
    "Horodişte": [],
    "Leordoaia": [],
    "Meleşeni": [],
    "Mîndra": [],
    "Nişcani": [],
    "Novaci": [],
    "Onişcani": [],
    "Oricova": [],
    "Palanca": [],
    "Parcani": [],
    "Păuleşti": [],
    "Peticeni": [],
    "Pituşca": [],
    "Pîrjolteni": [],
    "Podul Lung": [],
    "Răciula": [],
    "Rădeni": [],
    "Sadova": [],
    "Săseni": [],
    "Schinoasa": [],
    "Seliştea Nouă": [],
    "Sipoteni": [],
    "Sverida": [],
    "Temeleuţi": [],
    "Tuzara": [],
    "Ţibirica": [],
    "Ursari": [],
    "Vălcineţ": [],
    "Vărzăreştii Noi": []
  }
}
