{
  "country_code": "MD",
  "parents": [
    "MD",
    "MD-DO"
  ],
  "subdivisions": {
    "Donduşeni": [],
    "Arioneşti": [],
    "Baraboi": [],
    "Boroseni": [],
    "Braicău": [],
    "Briceni": [],
    "Briceva": [],
    "Caraiman": [],
    "Cernoleuca": [],
    "Climăuţi": [],
    "Codrenii Noi": [],
    "Corbu": [],
    "Crişcăuţi": [],
    "Elenovca": [],
    "Elizavetovca": [],
    "Frasin": [],
    "Horodişte": [],
    "Moşana": [],
    "Octeabriscoe": [],
    "Pivniceni": [],
    "Plop": [],
    "Pocrovca": [],
    "Rediul Mare": [],
    "Scăieni": [],
    "Sudarca": [],
    "Teleşeuca": [],
    "Teleşeuca Nouă": [],
    "Tîrnova": [],
    "Ţaul": []
  }
}
