{
  "country_code": "MD",
  "parents": [
    "MD",
    "MD-BR"
  ],
  "subdivisions": {
    "Briceni": [],
    "Balasineşti": [],
    "Bălcăuţi": [],
    "Beleavinţi": [],
    "Berlinţi": [],
    "Bezeda": [],
    "Bocicăuţi": [],
    "Bogdăneşti": [],
    "Bulboaca": [],
    "Caracuşenii Vechi": [],
    "Caracuşenii Noi": [],
    "Chirilovca": [],
    "Colicăuţi": [],
    "Corjeuţi": [],
    "Coteala": [],
    "Cotiujeni": [],
    "Criva": [],
    "Drepcăuţi": [],
    "Grimeşti": [],
    "Grimăncăuţi": [],
    "Grozniţa": [],
    "Halahora de Jos": [],
    "Halahora de Sus": [],
    "Hlina": [],
    "Larga": [],
    "Lipcani": [],
    "Mărcăuţi": [],
    "Mărcăuţii Noi": [],
    "Medveja": [],
    "Mihăileni": [],
    "Pavlovca": [],
    "Pererîta": [],
    "Slobozia-Medveja": [],
    "Slobozia-Şirăuţi": [],
    "Şirăuţi": [],
    "Tabani": [],
    "Teţcani": [],
    "Trebisăuţi": [],
    "Trestieni": []
  }
}