{
  "country_code": "MD",
  "parents": [
    "MD",
    "MD-NI"
  ],
  "subdivisions": {
    "Nisporeni": [],
    "Băcşeni": [],
    "Bălăneşti": [],
    "Bălăureşti": [],
    "Bărboieni": [],
    "Boldureşti": [],
    "Bolţun": [],
    "Brătuleni": [],
    "Bursuc": [],
    "Călimăneşti": [],
    "Chilişoaia": [],
    "Cioreşti": [],
    "Ciuteşti": [],
    "Cîrneşti": [],
    "Cristeşti": [],
    "Drojdieni": [],
    "Găureni": [],
    "Grozeşti": [],
    "Heleşteni": [],
    "Isăicani": [],
    "Iurceni": [],
    "Luminiţa": [],
    "Marinici": [],
    "Mileşti": [],
    "Mîrzoaia": [],
    "Odaia": [],
    "Odobeşti": [],
    "Păruceni": [],
    "Selişte": [],
    "Selişteni": [],
    "Soltăneşti": [],
    "Şendreni": [],
    "Şişcani": [],
    "Valea Nîrnovei": [],
    "Valea-Trestieni": [],
    "Vărzăreşti": [],
    "Vînători": [],
    "Vulcăneşti": [],
    "Zberoaia": []
  }
}
