{
  "country_code": "MD",
  "parents": [
    "MD",
    "MD-SD"
  ],
  "subdivisions": {
    "Șoldănești": [],
    "Alcedar": [],
    "Chipeşca": [],
    "Climăuţii de Jos": [],
    "Cobîlea": [],
    "Cot": [],
    "Cotiujenii Mari": [],
    "Curătura": [],
    "Cuşelăuca": [],
    "Cuşmirca": [],
    "Dobruşa": [],
    "Fuzăuca": [],
    "Găuzeni": [],
    "Glinjeni": [],
    "Lelina": [],
    "Mihuleni": [],
    "Odaia": [],
    "Olişcani": [],
    "Parcani": [],
    "Pohoarna": [],
    "Poiana": [],
    "Răspopeni": [],
    "Receşti": [],
    "Rogojeni": [],
    "Salcia": [],
    "Sămăşcani": [],
    "Socola": [],
    "Şipca": [],
    "Şestaci": [],
    "Şoldăneşti": [],
    "Vadul-Raşcov": [],
    "Zahorna": []
  }
}
