{
  "country_code": "MD",
  "parents": [
    "MD",
    "MD-CT"
  ],
  "subdivisions": {
    "Cantemir": [],
    "Acui": [],
    "Alexandrovca": [],
    "Antoneşti": [],
    "Baimaclia": [],
    "Bobocica": [],
    "Cania": [],
    "Capaclia": [],
    "Chioselia": [],
    "Ciobalaccia": [],
    "Cîietu": [],
    "Cîrpeşti": [],
    "Cîşla": [],
    "Crăciun": [],
    "Cociulia": [],
    "Constantineşti": [],
    "Coştangalia": [],
    "Dimitrova": [],
    "Enichioi": [],
    "Flocoasa": [],
    "Floricica": [],
    "Ghioltosu": [],
    "Goteşti": [],
    "Haragîş": [],
    "Hănăseni": [],
    "Hîrtop": [],
    "Iepureni": [],
    "Lărguţa": [],
    "Leca": [],
    "Lingura": [],
    "Pleşeni": [],
    "Plopi": [],
    "Popovca": [],
    "Porumbeşti": [],
    "Sadîc": [],
    "Stoianovca": [],
    "Suhat": [],
    "Şamalia": [],
    "Şofranovca": [],
    "Taraclia": [],
    "Tartaul": [],
    "Tătărăşeni": [],
    "Toceni": [],
    "Ţărăncuţa": [],
    "Ţiganca": [],
    "Ţiganca Nouă": [],
    "Ţolica": [],
    "Victorovca": [],
    "Vişniovca": [],
    "Vîlcele": []
  }
}