{
  "country_code": "MD",
  "parents": [
    "MD",
    "MD-ST"
  ],
  "subdivisions": {
    "Străşeni": [],
    "Bucovăţ": [],
    "Căpriana": [],
    "Chirianca": [],
    "Ciobanca": [],
    "Codreanca": [],
    "Cojuşna": [],
    "Dolna": [],
    "Drăguşeni": [],
    "Făgureni": [],
    "Găleşti": [],
    "Găleştii Noi": [],
    "Ghelăuza": [],
    "Gornoe": [],
    "Grebleşti": [],
    "Huzun": [],
    "Lozova": [],
    "Lupa-Recea": [],
    "Mărtineşti": [],
    "Micăuţi": [],
    "Micleuşeni": [],
    "Negreşti": [],
    "Oneşti": [],
    "Pănăşeşti": [],
    "Rassvet": [],
    "Rădeni": [],
    "Romăneşti": [],
    "Recea": [],
    "Roşcani": [],
    "Saca": [],
    "Scoreni": [],
    "Sireţi": [],
    "Stejăreni": [],
    "Tătăreşti": [],
    "Ţigăneşti": [],
    "Voinova": [],
    "Vorniceni": [],
    "Zamciogi": [],
    "Zubreşti": []
  }
}
